{
  "project_info": {
    "project_number": "860007133061",
    "firebase_url": "https://diplomadounam-2bd16.firebaseio.com",
    "project_id": "diplomadounam-2bd16",
    "storage_bucket": "diplomadounam-2bd16.appspot.com"
  },
  "client": [
    {
      "client_info": {
        "mobilesdk_app_id": "1:860007133061:android:e76f38c731758a88",
        "android_client_info": {
          "package_name": "com.cybertech.firebasediplomado"
        }
      },
      "oauth_client": [
        {
          "client_id": "860007133061-ts2elcr3q6gm3tuve0an6vs359eqr2dc.apps.googleusercontent.com",
          "client_type": 1,
          "android_info": {
            "package_name": "com.cybertech.firebasediplomado",
            "certificate_hash": "6a48d7e7863e6411ef199acc04991d1dcd93f98e"
          }
        },
        {
          "client_id": "860007133061-k732at0s63f41lb4irvc012jto809qfi.apps.googleusercontent.com",
          "client_type": 3
        }
      ],
      "api_key": [
        {
          "current_key": "AIzaSyBtFuVqj5SUSyJLiuklIV4Az5YAsWVBj-w"
        }
      ],
      "services": {
        "analytics_service": {
          "status": 1
        },
        "appinvite_service": {
          "status": 2,
          "other_platform_oauth_client": [
            {
              "client_id": "860007133061-k732at0s63f41lb4irvc012jto809qfi.apps.googleusercontent.com",
              "client_type": 3
            }
          ]
        },
        "ads_service": {
          "status": 2
        }
      }
    }
  ],
  "configuration_version": "1"
}